"BehaviorSpace results (NetLogo 6.0.4)"
"Covid-19.nlogo"
"experiment"
"04/20/2020 00:57:31:702 +0200"
"min-pxcor","max-pxcor","min-pycor","max-pycor"
"-240","240","-119","119"
"[run number]","1","1","1"
"infection-rate","0.2",,
"num-Peoples","10000",,
"[reporter]","Peoples-Infected","Peoples-Recovred","num-Peoples - count peoples"
"[final]","24071","19126","4945"
"[min]","1","0","0"
"[max]","24071","19126","4945"
"[mean]","14534.813868613139","11226.929440389295","2819.70802919708"
"[steps]","821","821","821"

"[all run data]","Peoples-Infected","Peoples-Recovred","num-Peoples - count peoples"
,"1","0","0"
,"1","0","0"
,"1","0","0"
,"1","0","0"
,"4","0","0"
,"5","0","0"
,"11","0","0"
,"13","0","0"
,"16","0","0"
,"20","0","0"
,"23","0","0"
,"24","0","0"
,"26","0","0"
,"28","0","0"
,"31","0","0"
,"33","0","0"
,"38","0","0"
,"43","2","0"
,"56","3","0"
,"58","5","0"
,"66","10","0"
,"73","10","0"
,"76","16","0"
,"83","19","0"
,"85","19","0"
,"88","20","0"
,"94","23","0"
,"104","25","0"
,"106","27","0"
,"109","31","0"
,"120","34","1"
,"129","42","1"
,"132","45","1"
,"138","48","1"
,"144","55","1"
,"154","59","3"
,"162","62","3"
,"167","69","3"
,"173","70","4"
,"182","73","4"
,"189","78","4"
,"200","81","4"
,"207","82","4"
,"210","85","4"
,"225","96","4"
,"241","101","4"
,"253","106","10"
,"268","111","12"
,"282","113","12"
,"294","120","14"
,"304","124","15"
,"315","127","15"
,"326","132","16"
,"345","140","16"
,"359","148","17"
,"374","154","20"
,"387","158","24"
,"397","165","24"
,"409","176","24"
,"425","190","28"
,"445","198","28"
,"460","210","29"
,"478","222","29"
,"503","232","31"
,"522","239","38"
,"537","250","39"
,"560","258","42"
,"581","275","46"
,"603","287","46"
,"620","298","47"
,"636","310","49"
,"656","322","50"
,"681","331","51"
,"697","345","56"
,"717","358","61"
,"743","372","61"
,"762","388","63"
,"784","402","64"
,"806","411","67"
,"826","427","68"
,"850","447","71"
,"873","465","73"
,"896","477","76"
,"913","491","78"
,"945","503","81"
,"969","528","82"
,"993","540","83"
,"1017","554","84"
,"1042","566","88"
,"1070","586","91"
,"1098","602","95"
,"1124","623","101"
,"1150","636","112"
,"1165","654","115"
,"1185","676","119"
,"1215","697","120"
,"1240","710","129"
,"1262","728","133"
,"1298","751","135"
,"1323","769","140"
,"1358","794","141"
,"1385","815","149"
,"1419","836","154"
,"1448","853","161"
,"1471","873","166"
,"1503","892","168"
,"1539","914","172"
,"1561","926","175"
,"1587","949","179"
,"1611","970","183"
,"1639","990","187"
,"1663","1009","191"
,"1689","1031","199"
,"1721","1053","206"
,"1744","1081","208"
,"1774","1102","213"
,"1801","1122","217"
,"1842","1145","223"
,"1888","1173","230"
,"1916","1198","234"
,"1945","1227","237"
,"1986","1244","239"
,"2019","1268","246"
,"2058","1286","248"
,"2088","1307","254"
,"2123","1325","260"
,"2157","1350","269"
,"2182","1365","274"
,"2213","1394","286"
,"2239","1415","291"
,"2274","1441","299"
,"2304","1459","304"
,"2335","1491","309"
,"2357","1508","313"
,"2403","1542","317"
,"2438","1568","323"
,"2471","1603","325"
,"2514","1629","329"
,"2550","1653","334"
,"2591","1686","342"
,"2626","1708","348"
,"2662","1732","353"
,"2703","1765","360"
,"2749","1787","366"
,"2787","1811","373"
,"2824","1835","381"
,"2852","1859","399"
,"2883","1878","412"
,"2920","1913","418"
,"2954","1940","427"
,"2989","1970","430"
,"3037","2000","437"
,"3077","2043","443"
,"3123","2069","451"
,"3169","2098","453"
,"3204","2129","456"
,"3248","2157","460"
,"3284","2190","461"
,"3335","2223","466"
,"3389","2252","477"
,"3424","2273","482"
,"3461","2302","489"
,"3509","2329","497"
,"3559","2357","503"
,"3606","2389","511"
,"3644","2428","519"
,"3688","2465","525"
,"3745","2505","528"
,"3783","2536","538"
,"3838","2569","546"
,"3885","2602","550"
,"3928","2642","566"
,"3976","2680","571"
,"4018","2718","577"
,"4064","2750","587"
,"4100","2781","594"
,"4160","2823","597"
,"4215","2861","602"
,"4277","2899","609"
,"4326","2923","616"
,"4374","2965","625"
,"4429","3011","633"
,"4481","3035","639"
,"4525","3081","650"
,"4575","3118","657"
,"4621","3151","662"
,"4666","3184","669"
,"4721","3225","677"
,"4766","3255","686"
,"4820","3297","691"
,"4869","3339","703"
,"4923","3383","708"
,"4980","3424","717"
,"5045","3471","729"
,"5108","3509","735"
,"5177","3553","742"
,"5240","3582","750"
,"5292","3621","762"
,"5351","3666","777"
,"5407","3704","783"
,"5472","3733","795"
,"5526","3777","803"
,"5582","3810","811"
,"5639","3855","822"
,"5699","3897","828"
,"5759","3940","848"
,"5810","3988","857"
,"5880","4050","869"
,"5935","4097","876"
,"5998","4159","886"
,"6059","4202","900"
,"6115","4244","912"
,"6186","4282","919"
,"6241","4329","931"
,"6307","4378","941"
,"6360","4416","953"
,"6410","4464","965"
,"6479","4514","975"
,"6545","4558","984"
,"6599","4601","996"
,"6655","4648","1005"
,"6708","4693","1014"
,"6772","4736","1030"
,"6826","4789","1039"
,"6893","4841","1048"
,"6961","4889","1055"
,"7027","4938","1078"
,"7081","4985","1090"
,"7147","5029","1110"
,"7204","5068","1121"
,"7263","5109","1130"
,"7335","5160","1141"
,"7387","5204","1150"
,"7452","5245","1163"
,"7507","5285","1174"
,"7558","5326","1186"
,"7603","5376","1208"
,"7662","5426","1222"
,"7715","5469","1235"
,"7772","5538","1251"
,"7840","5583","1262"
,"7903","5625","1271"
,"7972","5673","1282"
,"8032","5721","1296"
,"8089","5771","1312"
,"8147","5821","1325"
,"8213","5864","1344"
,"8266","5911","1361"
,"8322","5955","1378"
,"8377","5989","1392"
,"8422","6030","1402"
,"8457","6078","1415"
,"8500","6128","1431"
,"8550","6173","1444"
,"8610","6227","1457"
,"8681","6276","1464"
,"8750","6329","1481"
,"8802","6369","1502"
,"8848","6416","1514"
,"8887","6463","1529"
,"8942","6510","1540"
,"9002","6550","1548"
,"9045","6589","1564"
,"9092","6626","1574"
,"9141","6656","1584"
,"9181","6691","1592"
,"9224","6728","1601"
,"9267","6776","1610"
,"9320","6823","1624"
,"9362","6882","1643"
,"9421","6929","1657"
,"9476","6976","1675"
,"9522","7000","1686"
,"9564","7041","1691"
,"9619","7077","1709"
,"9680","7124","1728"
,"9736","7168","1740"
,"9789","7215","1753"
,"9834","7242","1767"
,"9883","7281","1776"
,"9938","7313","1781"
,"9995","7352","1791"
,"10052","7388","1801"
,"10099","7424","1818"
,"10144","7474","1827"
,"10197","7511","1841"
,"10235","7549","1851"
,"10288","7580","1860"
,"10339","7633","1871"
,"10385","7677","1881"
,"10427","7726","1888"
,"10481","7759","1892"
,"10530","7787","1900"
,"10581","7842","1913"
,"10642","7891","1919"
,"10695","7930","1929"
,"10745","7974","1934"
,"10801","8007","1947"
,"10841","8044","1962"
,"10897","8083","1971"
,"10934","8111","1983"
,"10978","8154","1992"
,"11018","8188","2003"
,"11057","8218","2009"
,"11109","8263","2028"
,"11152","8300","2038"
,"11191","8340","2049"
,"11228","8388","2059"
,"11277","8422","2064"
,"11316","8463","2077"
,"11354","8496","2087"
,"11390","8540","2099"
,"11434","8574","2111"
,"11478","8616","2122"
,"11515","8653","2130"
,"11553","8688","2142"
,"11595","8716","2158"
,"11634","8753","2171"
,"11667","8788","2180"
,"11705","8822","2186"
,"11759","8857","2199"
,"11794","8893","2212"
,"11835","8932","2225"
,"11880","8963","2236"
,"11923","8994","2256"
,"11970","9030","2267"
,"12019","9061","2282"
,"12052","9096","2289"
,"12094","9124","2296"
,"12136","9158","2301"
,"12186","9187","2306"
,"12227","9222","2317"
,"12271","9251","2323"
,"12308","9279","2338"
,"12345","9317","2347"
,"12391","9336","2351"
,"12418","9365","2355"
,"12453","9412","2361"
,"12492","9452","2367"
,"12538","9488","2371"
,"12580","9518","2382"
,"12615","9551","2390"
,"12652","9586","2399"
,"12690","9622","2404"
,"12735","9664","2414"
,"12776","9698","2423"
,"12820","9729","2427"
,"12871","9764","2437"
,"12904","9803","2451"
,"12962","9832","2464"
,"13008","9858","2473"
,"13052","9884","2482"
,"13088","9923","2488"
,"13133","9955","2496"
,"13190","9990","2501"
,"13224","10014","2514"
,"13270","10048","2517"
,"13322","10081","2524"
,"13359","10112","2531"
,"13402","10139","2540"
,"13448","10178","2547"
,"13490","10208","2552"
,"13536","10249","2560"
,"13585","10284","2564"
,"13630","10321","2571"
,"13672","10354","2576"
,"13719","10385","2584"
,"13751","10424","2594"
,"13792","10466","2598"
,"13842","10498","2609"
,"13882","10541","2614"
,"13925","10580","2620"
,"13975","10614","2629"
,"14024","10647","2638"
,"14065","10687","2652"
,"14119","10723","2663"
,"14168","10761","2679"
,"14208","10795","2689"
,"14260","10839","2699"
,"14312","10867","2705"
,"14358","10900","2714"
,"14407","10925","2725"
,"14457","10969","2732"
,"14514","11004","2734"
,"14574","11040","2743"
,"14624","11077","2752"
,"14671","11114","2762"
,"14736","11148","2765"
,"14781","11190","2771"
,"14843","11230","2778"
,"14894","11265","2782"
,"14941","11298","2793"
,"15014","11341","2799"
,"15077","11382","2807"
,"15134","11424","2819"
,"15198","11459","2828"
,"15259","11505","2839"
,"15309","11549","2845"
,"15359","11594","2855"
,"15424","11644","2862"
,"15481","11691","2872"
,"15537","11732","2881"
,"15611","11775","2893"
,"15675","11827","2900"
,"15731","11857","2911"
,"15790","11914","2924"
,"15855","11958","2934"
,"15928","12015","2940"
,"15985","12062","2946"
,"16044","12107","2956"
,"16102","12155","2964"
,"16155","12190","2973"
,"16212","12240","2986"
,"16268","12285","2996"
,"16338","12334","3000"
,"16399","12383","3008"
,"16468","12435","3020"
,"16527","12483","3030"
,"16590","12527","3042"
,"16656","12575","3051"
,"16712","12636","3063"
,"16784","12700","3080"
,"16869","12743","3089"
,"16931","12787","3097"
,"16989","12832","3112"
,"17047","12885","3123"
,"17108","12916","3136"
,"17180","12978","3147"
,"17236","13035","3158"
,"17306","13086","3170"
,"17380","13137","3187"
,"17429","13184","3206"
,"17485","13232","3219"
,"17544","13285","3230"
,"17607","13325","3243"
,"17670","13387","3252"
,"17745","13444","3259"
,"17803","13492","3268"
,"17875","13543","3280"
,"17946","13595","3291"
,"17995","13636","3300"
,"18064","13682","3313"
,"18123","13734","3319"
,"18185","13793","3330"
,"18246","13843","3345"
,"18311","13889","3356"
,"18370","13934","3372"
,"18438","13993","3385"
,"18503","14043","3398"
,"18571","14091","3416"
,"18643","14157","3433"
,"18705","14209","3444"
,"18775","14261","3459"
,"18841","14311","3470"
,"18910","14362","3478"
,"18965","14407","3496"
,"19027","14450","3522"
,"19085","14502","3529"
,"19134","14544","3538"
,"19193","14589","3553"
,"19254","14636","3565"
,"19317","14689","3570"
,"19380","14740","3580"
,"19441","14797","3591"
,"19491","14858","3604"
,"19555","14907","3613"
,"19614","14953","3625"
,"19675","15006","3643"
,"19734","15057","3651"
,"19801","15104","3667"
,"19864","15152","3685"
,"19923","15193","3699"
,"19981","15229","3715"
,"20032","15282","3724"
,"20091","15320","3746"
,"20137","15374","3759"
,"20193","15415","3773"
,"20252","15462","3791"
,"20304","15512","3800"
,"20356","15564","3813"
,"20401","15614","3830"
,"20447","15660","3843"
,"20513","15708","3857"
,"20565","15764","3872"
,"20613","15802","3888"
,"20667","15856","3899"
,"20717","15894","3917"
,"20759","15942","3930"
,"20809","15986","3937"
,"20848","16018","3955"
,"20894","16058","3968"
,"20940","16102","3985"
,"20985","16144","3998"
,"21018","16181","4009"
,"21052","16221","4018"
,"21109","16263","4028"
,"21159","16308","4043"
,"21203","16355","4054"
,"21243","16397","4067"
,"21285","16438","4083"
,"21329","16476","4097"
,"21363","16509","4105"
,"21411","16541","4114"
,"21449","16575","4125"
,"21485","16610","4140"
,"21533","16645","4158"
,"21569","16674","4171"
,"21603","16700","4178"
,"21638","16741","4191"
,"21683","16781","4199"
,"21721","16823","4211"
,"21762","16858","4226"
,"21797","16886","4232"
,"21836","16916","4242"
,"21868","16950","4248"
,"21907","16977","4259"
,"21950","17009","4271"
,"21983","17040","4280"
,"22021","17068","4291"
,"22051","17096","4302"
,"22082","17123","4316"
,"22115","17155","4324"
,"22146","17181","4330"
,"22188","17223","4336"
,"22221","17257","4350"
,"22265","17285","4355"
,"22306","17315","4361"
,"22352","17345","4377"
,"22377","17371","4385"
,"22413","17403","4392"
,"22446","17432","4406"
,"22467","17462","4417"
,"22487","17490","4427"
,"22517","17514","4441"
,"22543","17534","4447"
,"22567","17564","4459"
,"22588","17586","4465"
,"22622","17625","4472"
,"22651","17647","4478"
,"22676","17686","4483"
,"22706","17722","4492"
,"22740","17753","4500"
,"22773","17775","4504"
,"22807","17806","4512"
,"22827","17831","4521"
,"22850","17846","4527"
,"22867","17867","4538"
,"22890","17886","4545"
,"22923","17907","4549"
,"22939","17916","4563"
,"22957","17937","4567"
,"22984","17965","4571"
,"23012","17984","4581"
,"23033","18006","4590"
,"23051","18031","4595"
,"23072","18056","4605"
,"23086","18085","4608"
,"23101","18102","4612"
,"23121","18121","4615"
,"23140","18138","4626"
,"23157","18153","4630"
,"23186","18176","4636"
,"23205","18198","4642"
,"23220","18210","4649"
,"23235","18228","4657"
,"23248","18251","4664"
,"23273","18278","4668"
,"23290","18295","4677"
,"23307","18311","4686"
,"23325","18327","4692"
,"23336","18334","4698"
,"23351","18349","4705"
,"23366","18365","4711"
,"23377","18380","4714"
,"23389","18397","4719"
,"23406","18421","4721"
,"23424","18431","4726"
,"23433","18445","4733"
,"23447","18458","4734"
,"23460","18474","4737"
,"23470","18488","4741"
,"23482","18504","4745"
,"23496","18516","4747"
,"23510","18533","4750"
,"23523","18538","4752"
,"23534","18550","4758"
,"23548","18563","4761"
,"23561","18573","4762"
,"23569","18586","4768"
,"23581","18604","4771"
,"23591","18617","4775"
,"23602","18626","4779"
,"23612","18637","4781"
,"23623","18646","4783"
,"23631","18655","4788"
,"23641","18662","4792"
,"23645","18672","4794"
,"23654","18690","4797"
,"23666","18702","4799"
,"23674","18711","4803"
,"23685","18722","4807"
,"23687","18730","4807"
,"23696","18736","4807"
,"23703","18744","4807"
,"23713","18754","4809"
,"23718","18760","4812"
,"23724","18766","4813"
,"23733","18772","4816"
,"23740","18783","4817"
,"23748","18785","4820"
,"23756","18789","4824"
,"23761","18800","4824"
,"23768","18811","4826"
,"23776","18815","4827"
,"23788","18821","4829"
,"23791","18825","4833"
,"23798","18833","4836"
,"23804","18837","4840"
,"23811","18844","4843"
,"23814","18848","4844"
,"23818","18853","4846"
,"23826","18863","4848"
,"23833","18868","4853"
,"23839","18874","4855"
,"23842","18880","4857"
,"23847","18886","4858"
,"23850","18890","4860"
,"23855","18893","4861"
,"23858","18899","4864"
,"23862","18901","4866"
,"23868","18907","4866"
,"23871","18911","4868"
,"23877","18917","4870"
,"23884","18917","4871"
,"23890","18923","4872"
,"23895","18930","4875"
,"23898","18938","4875"
,"23903","18940","4875"
,"23910","18942","4875"
,"23911","18944","4877"
,"23914","18948","4880"
,"23916","18952","4881"
,"23922","18956","4888"
,"23924","18962","4891"
,"23925","18963","4892"
,"23929","18965","4893"
,"23930","18972","4895"
,"23932","18977","4896"
,"23938","18988","4897"
,"23941","18989","4898"
,"23942","18991","4898"
,"23945","18999","4899"
,"23948","19000","4900"
,"23950","19002","4903"
,"23952","19004","4903"
,"23957","19006","4903"
,"23958","19010","4903"
,"23961","19011","4903"
,"23961","19011","4904"
,"23963","19013","4906"
,"23965","19014","4907"
,"23968","19015","4907"
,"23972","19019","4907"
,"23975","19022","4907"
,"23978","19023","4908"
,"23978","19026","4908"
,"23984","19028","4909"
,"23985","19031","4910"
,"23988","19033","4910"
,"23989","19036","4911"
,"23990","19037","4912"
,"23991","19039","4913"
,"23992","19039","4913"
,"23993","19041","4914"
,"23995","19041","4916"
,"23997","19045","4918"
,"24000","19048","4919"
,"24001","19048","4919"
,"24002","19050","4920"
,"24003","19053","4920"
,"24005","19055","4920"
,"24006","19056","4921"
,"24010","19059","4921"
,"24010","19060","4921"
,"24014","19061","4921"
,"24015","19062","4922"
,"24017","19062","4922"
,"24018","19063","4922"
,"24018","19064","4924"
,"24018","19066","4924"
,"24019","19067","4925"
,"24019","19069","4925"
,"24020","19070","4928"
,"24022","19071","4928"
,"24023","19073","4929"
,"24024","19075","4930"
,"24024","19075","4930"
,"24026","19075","4930"
,"24027","19078","4930"
,"24027","19078","4930"
,"24028","19079","4930"
,"24029","19080","4931"
,"24030","19080","4931"
,"24031","19081","4931"
,"24032","19081","4932"
,"24032","19081","4933"
,"24033","19082","4933"
,"24034","19084","4933"
,"24035","19085","4933"
,"24036","19086","4933"
,"24037","19086","4933"
,"24037","19088","4935"
,"24038","19088","4936"
,"24039","19088","4937"
,"24039","19089","4937"
,"24040","19090","4938"
,"24040","19092","4938"
,"24041","19093","4938"
,"24041","19093","4938"
,"24041","19093","4938"
,"24041","19094","4938"
,"24043","19095","4938"
,"24043","19096","4938"
,"24044","19096","4938"
,"24044","19097","4938"
,"24044","19098","4938"
,"24046","19099","4939"
,"24046","19099","4939"
,"24046","19099","4939"
,"24047","19100","4939"
,"24047","19101","4939"
,"24048","19101","4939"
,"24048","19101","4939"
,"24049","19101","4939"
,"24049","19102","4939"
,"24049","19103","4939"
,"24049","19103","4940"
,"24050","19104","4940"
,"24052","19104","4940"
,"24053","19104","4940"
,"24053","19104","4940"
,"24053","19104","4940"
,"24053","19105","4940"
,"24053","19105","4940"
,"24054","19106","4940"
,"24054","19106","4940"
,"24055","19106","4940"
,"24056","19107","4940"
,"24056","19107","4940"
,"24057","19107","4940"
,"24057","19108","4940"
,"24057","19109","4940"
,"24057","19110","4940"
,"24057","19111","4940"
,"24057","19111","4941"
,"24057","19111","4942"
,"24057","19111","4942"
,"24058","19111","4942"
,"24059","19112","4942"
,"24059","19113","4942"
,"24059","19113","4942"
,"24060","19113","4942"
,"24060","19113","4942"
,"24061","19114","4942"
,"24061","19114","4942"
,"24062","19114","4942"
,"24062","19114","4942"
,"24062","19114","4942"
,"24062","19114","4942"
,"24062","19114","4942"
,"24063","19115","4942"
,"24063","19115","4942"
,"24063","19116","4942"
,"24064","19116","4942"
,"24065","19117","4942"
,"24065","19117","4943"
,"24066","19117","4943"
,"24066","19117","4943"
,"24066","19117","4943"
,"24067","19118","4943"
,"24067","19118","4943"
,"24067","19118","4943"
,"24068","19118","4943"
,"24068","19118","4943"
,"24068","19119","4943"
,"24068","19119","4943"
,"24068","19119","4943"
,"24068","19121","4943"
,"24068","19121","4943"
,"24068","19121","4943"
,"24069","19122","4943"
,"24069","19122","4943"
,"24069","19123","4944"
,"24069","19123","4944"
,"24069","19123","4944"
,"24069","19123","4944"
,"24069","19124","4944"
,"24069","19124","4944"
,"24069","19124","4944"
,"24069","19124","4944"
,"24069","19124","4944"
,"24069","19124","4944"
,"24069","19124","4944"
,"24069","19124","4944"
,"24069","19124","4944"
,"24070","19124","4944"
,"24070","19124","4944"
,"24070","19124","4944"
,"24071","19124","4944"
,"24071","19124","4944"
,"24071","19124","4944"
,"24071","19124","4944"
,"24071","19124","4944"
,"24071","19124","4944"
,"24071","19124","4944"
,"24071","19124","4944"
,"24071","19124","4944"
,"24071","19124","4944"
,"24071","19124","4945"
,"24071","19125","4945"
,"24071","19125","4945"
,"24071","19126","4945"
